{
	"info": {
		"_postman_id": "06ce073a-e27a-4303-a736-6c6a81b338fa",
		"name": "Usuario",
		"description": "<h4>Introduction</h4>Realiza todas as operações relacionados a Usuários, as operações realizadas são os GET, POST, PUT e DELETE.<h4>Overview</h4>Não há nada a se saber de antemão em relação ao usuário, somente que para alterar os dados de acesso você precisa saber o id que se deseja alterar.<h4>Authentication</h4>A api não é autenticada, somente é autenticado o usuário no uso da aplicação, mas para fazer as operações na API não é necessário.<h4>Error Codes</h4>A maioria das coleções não retornam codigos de erro (como o 404), somente a do usuário (para procurar um usuário por exemplo) que retornaria 404.<h4>Rate limit</h4>Acredito não ter setado isso, então acho que não tenha um limite de taxas de solicitações na API.",
		"schema": "https://schema.getpostman.com/json/collection/v2.1.0/collection.json",
		"_exporter_id": "8975633"
	},
	"item": [
		{
			"name": "pegar",
			"request": {
				"method": "POST",
				"header": [],
				"body": {
					"mode": "raw",
					"raw": "{\n    \"username\":\"testeJubelanio\",\n    \"password\":\"1234\"\n}",
					"options": {
						"raw": {
							"language": "json"
						}
					}
				},
				"url": {
					"raw": "localhost:5000/api/usuario",
					"host": [
						"localhost"
					],
					"port": "5000",
					"path": [
						"api",
						"usuario"
					]
				},
				"description": "Pega o id do usuário com o usuário e senha especificados."
			},
			"response": []
		},
		{
			"name": "alterar",
			"request": {
				"method": "PUT",
				"header": [],
				"body": {
					"mode": "raw",
					"raw": "{ \"username\":\"testeJubelanio\", \"password\": \"1234\" }",
					"options": {
						"raw": {
							"language": "json"
						}
					}
				},
				"url": {
					"raw": "localhost:5000/api/usuario/2/alterar",
					"host": [
						"localhost"
					],
					"port": "5000",
					"path": [
						"api",
						"usuario",
						"2",
						"alterar"
					]
				},
				"description": "Altera um usuário específicado, mas para isto você precisa saber seu ID."
			},
			"response": []
		},
		{
			"name": "registrar",
			"request": {
				"method": "POST",
				"header": [],
				"body": {
					"mode": "raw",
					"raw": "{\"username\":\"teste\", \"password\":\"teste\" }",
					"options": {
						"raw": {
							"language": "json"
						}
					}
				},
				"url": {
					"raw": "localhost:5000/api/usuario/register",
					"host": [
						"localhost"
					],
					"port": "5000",
					"path": [
						"api",
						"usuario",
						"register"
					]
				},
				"description": "Somente registra um usuário e senha no banco criando assim um usuário no sistema."
			},
			"response": []
		}
	]
}